[gd_resource type="TileSet" load_steps=5 format=2]

[ext_resource path="res://imported_art/Prototype/Isometric/block_W.png" type="Texture" id=1]
[ext_resource path="res://imported_art/Prototype/Isometric/floor_W.png" type="Texture" id=2]

[sub_resource type="ConvexPolygonShape2D" id=1]
points = PoolVector2Array( 128, 191, 257, 256, 128, 321, -1, 256 )

[sub_resource type="NavigationPolygon" id=2]
vertices = PoolVector2Array( 128, 0, 256, 64, 128, 128, 0, 64 )
polygons = [ PoolIntArray( 0, 1, 2, 3 ) ]

[resource]
0/name = "block_W.png 0"
0/texture = ExtResource( 1 )
0/tex_offset = Vector2( 0, -192 )
0/modulate = Color( 1, 1, 1, 1 )
0/region = Rect2( 0, 192, 256, 320 )
0/tile_mode = 0
0/occluder_offset = Vector2( 0, 0 )
0/navigation_offset = Vector2( 0, 0 )
0/shapes = [ {
"autotile_coord": Vector2( 0, 0 ),
"one_way": false,
"one_way_margin": 1.0,
"shape": SubResource( 1 ),
"shape_transform": Transform2D( 1, 0, 0, 1, 0, -192 )
} ]
0/z_index = 0
1/name = "floor_W.png 1"
1/texture = ExtResource( 2 )
1/tex_offset = Vector2( 0, 0 )
1/modulate = Color( 1, 1, 1, 1 )
1/region = Rect2( 0, 384, 256, 128 )
1/tile_mode = 0
1/occluder_offset = Vector2( 0, 0 )
1/navigation_offset = Vector2( 0, 0 )
1/navigation = SubResource( 2 )
1/shapes = [  ]
1/z_index = -2
